{
  "prefix": "!",
  "token": "ABCDEFGHIJKLMNOPQRSTUVWXYZ",
  "startVolume": 100,
  "tracks": [
    {
      "title": "custom-title-for-file-sound",
      "file": "music/test.mp3"
    },
    {
      "title": "some-url-sound",
      "url": "https://www.youtube.com/watch?v=oHg5SJYRHA0"
    }
  ]
}
